{
  "prepare_queue": {
    "installed": [],
    "uninstalled": []
  },
  "config_munge": {
    "files": {}
  },
  "installed_plugins": {
    "cordova-plugin-whitelist": {
      "PACKAGE_NAME": "com.example.hello"
    },
    "org.apache.cordova.geolocation": {
      "PACKAGE_NAME": "com.example.hello"
    },
    "cordova-plugin-camera": {
      "PACKAGE_NAME": "com.example.hello"
    },
    "cordova-plugin-media": {
      "PACKAGE_NAME": "com.example.hello"
    },
    "cordova-plugin-network-information": {
      "PACKAGE_NAME": "com.example.hello"
    },
    "cordova-plugin-file-transfer": {
      "PACKAGE_NAME": "com.example.hello"
    },
    "cordova-plugin-inappbrowser": {
      "PACKAGE_NAME": "com.apptimus.mvp"
    }
  },
  "dependent_plugins": {
    "cordova-plugin-file": {
      "PACKAGE_NAME": "com.example.hello"
    }
  }
}